<?xml version="1.0" encoding="utf-8"?>
<!-- Generator: Adobe Illustrator 24.1.2, SVG Export Plug-In . SVG Version: 6.00 Build 0)  -->
<svg version="1.1" id="Layer_1" xmlns="http://www.w3.org/2000/svg" xmlns:xlink="http://www.w3.org/1999/xlink" x="0px" y="0px"
	 viewBox="0 0 282.21 236.42" style="enable-background:new 0 0 282.21 236.42;" xml:space="preserve">
<style type="text/css">
	.st0{fill:#6E6E6E;}
</style>
<g>
	<g>
		<path class="st0" d="M233.6,27.17c-9.14,4.44-17.26,10.93-23.69,19.12l-41.68,53.09l-14.26-35.23l-2.53-6.23
			c2.64-3.37,5.29-6.74,7.93-10.11c4-5.1,8.25-9.97,13.14-14.26c4-3.52,8.26-6.74,12.69-9.7c1.35-0.9,2.72-1.78,4.11-2.62
			c0.32-0.19,1.12-0.89,1.51-0.89c-4.63,0-9.29-0.13-13.91,0.1c-11.68,0.58-23.19,3.7-33.57,9.11
			c-10.35,5.4-19.48,13.03-26.63,22.25c0,0-44.47,57.34-44.47,57.34L67.6,52.95c-0.76-9.21-4.99-17.37-11.34-23.21
			c-4.47-4.13-10-7.07-15.93-8.46c-6.7-1.57-13.87-0.94-20.7-0.94c0,0,13.27,9.29,15.03,32.51c0.01-0.01,7.93,104.09,7.93,104.1
			c0.06,0.78,13.26-1.38,14.45-1.65c17.86-4.14,31.11-16.1,42.28-30.22c9.76-12.34,19.3-25.33,29.1-37.82l2.59,6.13l21.2,50.1
			c5.36,0,10.57-1.24,15.26-3.53c4.69-2.29,8.86-5.65,12.14-9.88l35.05-45.13l-14.05,72.01c10.38,0,20.03-3.67,27.59-9.89
			c7.56-6.21,13.02-14.97,15.03-25.15l20.02-101.57C252.85,20.34,242.72,22.73,233.6,27.17z"/>
		<path class="st0" d="M93.34,51.61c9.87,0,17.87-8,17.87-17.87c0-9.87-8-17.87-17.87-17.87c-9.87,0-17.87,8-17.87,17.87
			C75.48,43.61,83.47,51.61,93.34,51.61z"/>
	</g>
</g>
</svg>
